/*!
 * @license Copyright (c) 2003-2021, CKSource - Frederico Knabben. All rights reserved.
 * For licensing, see LICENSE.md.
 */

/*!
 * maska v1.4.2
 * (c) 2019-2021 Alexander Shabunevich
 * Released under the MIT License.
 */

/*!
 * vuex v4.0.2
 * (c) 2021 Evan You
 * @license MIT
 */

/*! !../../node_modules/css-loader/dist/cjs.js??ref--2-1!../../node_modules/vue-loader/lib/loaders/stylePostLoader.js!../../node_modules/vue-loader/lib??vue-loader-options!./ProductZoomer.vue?vue&type=style&index=0&lang=css& */

/*! !../../node_modules/css-loader/dist/cjs.js??ref--2-1!../../node_modules/vue-loader/lib/loaders/stylePostLoader.js!../../node_modules/vue-loader/lib??vue-loader-options!./ProductZoomer.vue?vue&type=style&index=1&id=033bd07e&scoped=true&lang=css& */

/*! -!../../node_modules/babel-loader/lib??ref--1!../../node_modules/vue-loader/lib??vue-loader-options!./ProductZoomer.vue?vue&type=script&lang=js& */

/*! -!../../node_modules/css-loader/dist/cjs.js??ref--2-1!../../node_modules/vue-loader/lib/loaders/stylePostLoader.js!../assets/drift-zoom/src/css/drift-basic.css */

/*! -!../../node_modules/vue-loader/lib/loaders/templateLoader.js??vue-loader-options!../../node_modules/vue-loader/lib??vue-loader-options!./ProductZoomer.vue?vue&type=template&id=033bd07e&scoped=true& */

/*! -!../../node_modules/vue-style-loader!../../node_modules/css-loader/dist/cjs.js??ref--2-1!../../node_modules/vue-loader/lib/loaders/stylePostLoader.js!../../node_modules/vue-loader/lib??vue-loader-options!./ProductZoomer.vue?vue&type=style&index=0&lang=css& */

/*! -!../../node_modules/vue-style-loader!../../node_modules/css-loader/dist/cjs.js??ref--2-1!../../node_modules/vue-loader/lib/loaders/stylePostLoader.js!../../node_modules/vue-loader/lib??vue-loader-options!./ProductZoomer.vue?vue&type=style&index=1&id=033bd07e&scoped=true&lang=css& */

/*! ../../../../../node_modules/css-loader/dist/runtime/api.js */

/*! ../../node_modules/css-loader/dist/runtime/api.js */

/*! ../../node_modules/vue-loader/lib/runtime/componentNormalizer.js */

/*! ../../node_modules/vue-style-loader/lib/addStylesClient.js */

/*! ../assets/drift-zoom/src/js/Drift.js */

/*! ../assets/svg-icons/arrow-down-s-fill.svg */

/*! ../assets/svg-icons/arrow-down-s-line.svg */

/*! ../assets/svg-icons/arrow-left-s-fill.svg */

/*! ../assets/svg-icons/arrow-left-s-line.svg */

/*! ../assets/svg-icons/arrow-right-s-fill.svg */

/*! ../assets/svg-icons/arrow-right-s-line.svg */

/*! ../assets/svg-icons/arrow-up-s-fill.svg */

/*! ../assets/svg-icons/arrow-up-s-line.svg */

/*! ./BoundingBox */

/*! ./ProductZoomer.vue?vue&type=script&lang=js& */

/*! ./ProductZoomer.vue?vue&type=style&index=0&lang=css& */

/*! ./ProductZoomer.vue?vue&type=style&index=1&id=033bd07e&scoped=true&lang=css& */

/*! ./ProductZoomer.vue?vue&type=template&id=033bd07e&scoped=true& */

/*! ./Trigger */

/*! ./ZoomPane */

/*! ./components/ProductZoomer */

/*! ./injectBaseStylesheet */

/*! ./listToStyles */

/*! ./util/dom */

/*! ./util/throwIfMissing */

/*! exports provided: default */

/*! exports provided: isDOMElement, addClasses, removeClasses */

/*! exports provided: render, staticRenderFns */

/*! no static exports found */

/*!************************!*\
  !*** ./src/publish.js ***!
  \************************/

/*!******************************************!*\
  !*** ./src/components/ProductZoomer.vue ***!
  \******************************************/

/*!***********************************************!*\
  !*** ./src/assets/drift-zoom/src/js/Drift.js ***!
  \***********************************************/

/*!*************************************************!*\
  !*** ./src/assets/drift-zoom/src/js/Trigger.js ***!
  \*************************************************/

/*!**************************************************!*\
  !*** ./src/assets/drift-zoom/src/js/ZoomPane.js ***!
  \**************************************************/

/*!**************************************************!*\
  !*** ./src/assets/drift-zoom/src/js/util/dom.js ***!
  \**************************************************/

/*!**************************************************!*\
  !*** ./src/assets/svg-icons/arrow-up-s-fill.svg ***!
  \**************************************************/

/*!**************************************************!*\
  !*** ./src/assets/svg-icons/arrow-up-s-line.svg ***!
  \**************************************************/

/*!****************************************************!*\
  !*** ./src/assets/svg-icons/arrow-down-s-fill.svg ***!
  \****************************************************/

/*!****************************************************!*\
  !*** ./src/assets/svg-icons/arrow-down-s-line.svg ***!
  \****************************************************/

/*!****************************************************!*\
  !*** ./src/assets/svg-icons/arrow-left-s-fill.svg ***!
  \****************************************************/

/*!****************************************************!*\
  !*** ./src/assets/svg-icons/arrow-left-s-line.svg ***!
  \****************************************************/

/*!*****************************************************!*\
  !*** ./node_modules/css-loader/dist/runtime/api.js ***!
  \*****************************************************/

/*!*****************************************************!*\
  !*** ./src/assets/drift-zoom/src/js/BoundingBox.js ***!
  \*****************************************************/

/*!*****************************************************!*\
  !*** ./src/assets/svg-icons/arrow-right-s-fill.svg ***!
  \*****************************************************/

/*!*****************************************************!*\
  !*** ./src/assets/svg-icons/arrow-right-s-line.svg ***!
  \*****************************************************/

/*!***********************************************************!*\
  !*** ./node_modules/vue-style-loader/lib/listToStyles.js ***!
  \***********************************************************/

/*!*************************************************************!*\
  !*** ./src/assets/drift-zoom/src/js/util/throwIfMissing.js ***!
  \*************************************************************/

/*!**************************************************************!*\
  !*** ./node_modules/vue-style-loader/lib/addStylesClient.js ***!
  \**************************************************************/

/*!**************************************************************!*\
  !*** ./src/assets/drift-zoom/src/js/injectBaseStylesheet.js ***!
  \**************************************************************/

/*!*******************************************************************!*\
  !*** ./src/components/ProductZoomer.vue?vue&type=script&lang=js& ***!
  \*******************************************************************/

/*!********************************************************************!*\
  !*** ./node_modules/vue-loader/lib/runtime/componentNormalizer.js ***!
  \********************************************************************/

/*!***************************************************************************!*\
  !*** ./src/components/ProductZoomer.vue?vue&type=style&index=0&lang=css& ***!
  \***************************************************************************/

/*!*************************************************************************************!*\
  !*** ./src/components/ProductZoomer.vue?vue&type=template&id=033bd07e&scoped=true& ***!
  \*************************************************************************************/

/*!***************************************************************************************************!*\
  !*** ./src/components/ProductZoomer.vue?vue&type=style&index=1&id=033bd07e&scoped=true&lang=css& ***!
  \***************************************************************************************************/

/*!*************************************************************************************************************************************************************!*\
  !*** ./node_modules/babel-loader/lib??ref--1!./node_modules/vue-loader/lib??vue-loader-options!./src/components/ProductZoomer.vue?vue&type=script&lang=js& ***!
  \*************************************************************************************************************************************************************/

/*!****************************************************************************************************************************************************************!*\
  !*** ./node_modules/css-loader/dist/cjs.js??ref--2-1!./node_modules/vue-loader/lib/loaders/stylePostLoader.js!./src/assets/drift-zoom/src/css/drift-basic.css ***!
  \****************************************************************************************************************************************************************/

/*!*******************************************************************************************************************************************************************************************************************!*\
  !*** ./node_modules/vue-loader/lib/loaders/templateLoader.js??vue-loader-options!./node_modules/vue-loader/lib??vue-loader-options!./src/components/ProductZoomer.vue?vue&type=template&id=033bd07e&scoped=true& ***!
  \*******************************************************************************************************************************************************************************************************************/

/*!**************************************************************************************************************************************************************************************************************************************!*\
  !*** ./node_modules/css-loader/dist/cjs.js??ref--2-1!./node_modules/vue-loader/lib/loaders/stylePostLoader.js!./node_modules/vue-loader/lib??vue-loader-options!./src/components/ProductZoomer.vue?vue&type=style&index=0&lang=css& ***!
  \**************************************************************************************************************************************************************************************************************************************/

/*!**************************************************************************************************************************************************************************************************************************************************************!*\
  !*** ./node_modules/css-loader/dist/cjs.js??ref--2-1!./node_modules/vue-loader/lib/loaders/stylePostLoader.js!./node_modules/vue-loader/lib??vue-loader-options!./src/components/ProductZoomer.vue?vue&type=style&index=1&id=033bd07e&scoped=true&lang=css& ***!
  \**************************************************************************************************************************************************************************************************************************************************************/

/*!**********************************************************************************************************************************************************************************************************************************************************************!*\
  !*** ./node_modules/vue-style-loader!./node_modules/css-loader/dist/cjs.js??ref--2-1!./node_modules/vue-loader/lib/loaders/stylePostLoader.js!./node_modules/vue-loader/lib??vue-loader-options!./src/components/ProductZoomer.vue?vue&type=style&index=0&lang=css& ***!
  \**********************************************************************************************************************************************************************************************************************************************************************/

/*!**********************************************************************************************************************************************************************************************************************************************************************************************!*\
  !*** ./node_modules/vue-style-loader!./node_modules/css-loader/dist/cjs.js??ref--2-1!./node_modules/vue-loader/lib/loaders/stylePostLoader.js!./node_modules/vue-loader/lib??vue-loader-options!./src/components/ProductZoomer.vue?vue&type=style&index=1&id=033bd07e&scoped=true&lang=css& ***!
  \**********************************************************************************************************************************************************************************************************************************************************************************************/

/**
 * @license
 * Lodash <https://lodash.com/>
 * Copyright OpenJS Foundation and other contributors <https://openjsf.org/>
 * Released under MIT license <https://lodash.com/license>
 * Based on Underscore.js 1.8.3 <http://underscorejs.org/LICENSE>
 * Copyright Jeremy Ashkenas, DocumentCloud and Investigative Reporters & Editors
 */

/**!
 * @fileOverview Kickass library to create and place poppers near their reference elements.
 * @version 1.16.1
 * @license
 * Copyright (c) 2016 Federico Zivolo and contributors
 *
 * Permission is hereby granted, free of charge, to any person obtaining a copy
 * of this software and associated documentation files (the "Software"), to deal
 * in the Software without restriction, including without limitation the rights
 * to use, copy, modify, merge, publish, distribute, sublicense, and/or sell
 * copies of the Software, and to permit persons to whom the Software is
 * furnished to do so, subject to the following conditions:
 *
 * The above copyright notice and this permission notice shall be included in all
 * copies or substantial portions of the Software.
 *
 * THE SOFTWARE IS PROVIDED "AS IS", WITHOUT WARRANTY OF ANY KIND, EXPRESS OR
 * IMPLIED, INCLUDING BUT NOT LIMITED TO THE WARRANTIES OF MERCHANTABILITY,
 * FITNESS FOR A PARTICULAR PURPOSE AND NONINFRINGEMENT. IN NO EVENT SHALL THE
 * AUTHORS OR COPYRIGHT HOLDERS BE LIABLE FOR ANY CLAIM, DAMAGES OR OTHER
 * LIABILITY, WHETHER IN AN ACTION OF CONTRACT, TORT OR OTHERWISE, ARISING FROM,
 * OUT OF OR IN CONNECTION WITH THE SOFTWARE OR THE USE OR OTHER DEALINGS IN THE
 * SOFTWARE.
 */
