{
	"info": {
		"_postman_id": "546e09ee-5bec-48e3-828a-42a6c8b6a828",
		"name": "Jithvar - CSV",
		"schema": "https://schema.getpostman.com/json/collection/v2.1.0/collection.json"
	},
	"item": [
		{
			"name": "Authentication",
			"item": [
				{
					"name": "Forgot Password",
					"item": [
						{
							"name": "Request OTP",
							"request": {
								"method": "POST",
								"header": [
									{
										"key": "Accept",
										"value": "application/json",
										"type": "text"
									}
								],
								"body": {
									"mode": "raw",
									"raw": "{\r\n    \"email\": \"kinyuamwaniki@outlook.com\"\r\n}",
									"options": {
										"raw": {
											"language": "json"
										}
									}
								},
								"url": {
									"raw": "{{base_url}}/api/v1/forgot-password",
									"host": [
										"{{base_url}}"
									],
									"path": [
										"api",
										"v1",
										"forgot-password"
									]
								}
							},
							"response": []
						},
						{
							"name": "Resend OTP",
							"request": {
								"method": "POST",
								"header": [
									{
										"key": "Accept",
										"value": "application/json",
										"type": "text"
									}
								],
								"body": {
									"mode": "raw",
									"raw": "{\r\n    \"email\": \"kinyuamwaniki@outlook.com\"\r\n}",
									"options": {
										"raw": {
											"language": "json"
										}
									}
								},
								"url": {
									"raw": "{{base_url}}/api/v1/forgot-password",
									"host": [
										"{{base_url}}"
									],
									"path": [
										"api",
										"v1",
										"forgot-password"
									]
								}
							},
							"response": []
						},
						{
							"name": "Change Password with OTP",
							"request": {
								"auth": {
									"type": "noauth"
								},
								"method": "POST",
								"header": [
									{
										"key": "Accept",
										"value": "application/json",
										"type": "text"
									}
								],
								"body": {
									"mode": "raw",
									"raw": "{\r\n    \"email\": \"kinyuamwaniki@outlook.com\",\r\n    \"otp\": \"cRLqi0AW\",\r\n    \"password\": \"password2\",\r\n    \"password_confirmation\": \"password2\"\r\n}",
									"options": {
										"raw": {
											"language": "json"
										}
									}
								},
								"url": {
									"raw": "{{base_url}}/api/v1/change-password-otp",
									"host": [
										"{{base_url}}"
									],
									"path": [
										"api",
										"v1",
										"change-password-otp"
									]
								}
							},
							"response": []
						}
					]
				},
				{
					"name": "Logout",
					"request": {
						"auth": {
							"type": "bearer",
							"bearer": [
								{
									"key": "token",
									"value": "{{token}}",
									"type": "string"
								}
							]
						},
						"method": "POST",
						"header": [
							{
								"key": "Accept",
								"value": "application/json",
								"type": "text"
							}
						],
						"url": {
							"raw": "{{base_url}}/api/v1/logout",
							"host": [
								"{{base_url}}"
							],
							"path": [
								"api",
								"v1",
								"logout"
							]
						}
					},
					"response": []
				},
				{
					"name": "User Info",
					"request": {
						"auth": {
							"type": "bearer",
							"bearer": [
								{
									"key": "token",
									"value": "{{token}}",
									"type": "string"
								}
							]
						},
						"method": "GET",
						"header": [
							{
								"key": "Accept",
								"value": "application/json",
								"type": "text"
							}
						],
						"url": {
							"raw": "{{base_url}}/api/v1/user/info",
							"host": [
								"{{base_url}}"
							],
							"path": [
								"api",
								"v1",
								"user",
								"info"
							]
						}
					},
					"response": []
				},
				{
					"name": "Login",
					"request": {
						"auth": {
							"type": "noauth"
						},
						"method": "POST",
						"header": [
							{
								"key": "Accept",
								"value": "application/json",
								"type": "text"
							}
						],
						"body": {
							"mode": "raw",
							"raw": "{\r\n    \"email\": \"admin@crm.test\",\r\n    \"password\": \"password\"\r\n}",
							"options": {
								"raw": {
									"language": "json"
								}
							}
						},
						"url": {
							"raw": "{{base_url}}/api/v1/login",
							"host": [
								"{{base_url}}"
							],
							"path": [
								"api",
								"v1",
								"login"
							]
						}
					},
					"response": []
				},
				{
					"name": "Change Password with token",
					"request": {
						"auth": {
							"type": "bearer",
							"bearer": [
								{
									"key": "token",
									"value": "{{token}}",
									"type": "string"
								}
							]
						},
						"method": "POST",
						"header": [
							{
								"key": "Accept",
								"value": "application/json",
								"type": "text"
							}
						],
						"body": {
							"mode": "raw",
							"raw": "{\r\n    \"password\": \"password2\",\r\n    \"password_confirmation\": \"password2\"\r\n}",
							"options": {
								"raw": {
									"language": "json"
								}
							}
						},
						"url": {
							"raw": "{{base_url}}/api/v1/change-password",
							"host": [
								"{{base_url}}"
							],
							"path": [
								"api",
								"v1",
								"change-password"
							]
						}
					},
					"response": []
				}
			]
		},
		{
			"name": "Categories",
			"item": [
				{
					"name": "Update Status",
					"request": {
						"auth": {
							"type": "bearer",
							"bearer": [
								{
									"key": "token",
									"value": "{{token}}",
									"type": "string"
								}
							]
						},
						"method": "PUT",
						"header": [
							{
								"key": "Accept",
								"value": "application/json",
								"type": "text"
							}
						],
						"body": {
							"mode": "raw",
							"raw": "{\r\n    \"id\": 22,\r\n    \"status\": 1\r\n}",
							"options": {
								"raw": {
									"language": "json"
								}
							}
						},
						"url": {
							"raw": "{{base_url}}/api/v1/clients/status/22",
							"host": [
								"{{base_url}}"
							],
							"path": [
								"api",
								"v1",
								"clients",
								"status",
								"22"
							]
						}
					},
					"response": []
				},
				{
					"name": "Get All",
					"protocolProfileBehavior": {
						"disableBodyPruning": true
					},
					"request": {
						"auth": {
							"type": "bearer",
							"bearer": [
								{
									"key": "token",
									"value": "{{token}}",
									"type": "string"
								}
							]
						},
						"method": "GET",
						"header": [
							{
								"key": "Accept",
								"value": "application/json",
								"type": "text"
							}
						],
						"body": {
							"mode": "raw",
							"raw": "",
							"options": {
								"raw": {
									"language": "json"
								}
							}
						},
						"url": {
							"raw": "{{base_url}}/api/v1/categories",
							"host": [
								"{{base_url}}"
							],
							"path": [
								"api",
								"v1",
								"categories"
							]
						}
					},
					"response": []
				},
				{
					"name": "Create",
					"request": {
						"auth": {
							"type": "bearer",
							"bearer": [
								{
									"key": "token",
									"value": "{{token}}",
									"type": "string"
								}
							]
						},
						"method": "POST",
						"header": [
							{
								"key": "Accept",
								"value": "application/json",
								"type": "text"
							}
						],
						"body": {
							"mode": "raw",
							"raw": "{\r\n    \"id\": null,\r\n    \"parent_id\": 2,\r\n    \"name\": \"Wild Hats Updated\",\r\n    \"code\": \"00201\",\r\n    \"attributes\": [\r\n        {\r\n            \"id\": 1,\r\n            \"unit\": 1,\r\n            \"value\": \"2\"\r\n        },\r\n    ]\r\n}",
							"options": {
								"raw": {
									"language": "json"
								}
							}
						},
						"url": {
							"raw": "{{base_url}}/api/v1/categories",
							"host": [
								"{{base_url}}"
							],
							"path": [
								"api",
								"v1",
								"categories"
							]
						}
					},
					"response": []
				},
				{
					"name": "Get Paginated",
					"request": {
						"auth": {
							"type": "bearer",
							"bearer": [
								{
									"key": "token",
									"value": "{{token}}",
									"type": "string"
								}
							]
						},
						"method": "POST",
						"header": [
							{
								"key": "Accept",
								"value": "application/json",
								"type": "text"
							}
						],
						"body": {
							"mode": "raw",
							"raw": "{\r\n    \"draw\": 0,\r\n    \"length\": 10,\r\n    \"search\": \"\",\r\n    \"column\": 0,\r\n    \"dir\": \"asc\"\r\n}",
							"options": {
								"raw": {
									"language": "json"
								}
							}
						},
						"url": {
							"raw": "{{base_url}}/api/v1/paginated-attribute-types",
							"host": [
								"{{base_url}}"
							],
							"path": [
								"api",
								"v1",
								"paginated-attribute-types"
							]
						}
					},
					"response": []
				},
				{
					"name": "Update",
					"request": {
						"auth": {
							"type": "bearer",
							"bearer": [
								{
									"key": "token",
									"value": "{{token}}",
									"type": "string"
								}
							]
						},
						"method": "PUT",
						"header": [
							{
								"key": "Accept",
								"value": "application/json",
								"type": "text"
							}
						],
						"body": {
							"mode": "raw",
							"raw": "{\r\n    \"id\": 3,\r\n    \"parent_id\": 1,\r\n    \"name\": \"Dresses - Reverted\",\r\n    \"code\": \"003\",\r\n    \"attributes\": [\r\n        {\r\n            \"id\": 1,\r\n            \"unit\": 2,\r\n            \"value\": \"2\"\r\n        },\r\n        {\r\n            \"id\": 2,\r\n            \"unit\": 3,\r\n            \"value\": \"2\"\r\n        }\r\n    ]\r\n}",
							"options": {
								"raw": {
									"language": "json"
								}
							}
						},
						"url": {
							"raw": "{{base_url}}/api/v1/categories/3",
							"host": [
								"{{base_url}}"
							],
							"path": [
								"api",
								"v1",
								"categories",
								"3"
							]
						}
					},
					"response": []
				},
				{
					"name": "Get",
					"protocolProfileBehavior": {
						"disableBodyPruning": true
					},
					"request": {
						"auth": {
							"type": "bearer",
							"bearer": [
								{
									"key": "token",
									"value": "{{token}}",
									"type": "string"
								}
							]
						},
						"method": "GET",
						"header": [
							{
								"key": "Accept",
								"value": "application/json",
								"type": "text"
							}
						],
						"body": {
							"mode": "raw",
							"raw": "",
							"options": {
								"raw": {
									"language": "json"
								}
							}
						},
						"url": {
							"raw": "{{base_url}}/api/v1/products/8",
							"host": [
								"{{base_url}}"
							],
							"path": [
								"api",
								"v1",
								"products",
								"8"
							]
						}
					},
					"response": []
				},
				{
					"name": "Delete",
					"request": {
						"auth": {
							"type": "bearer",
							"bearer": [
								{
									"key": "token",
									"value": "{{token}}",
									"type": "string"
								}
							]
						},
						"method": "DELETE",
						"header": [
							{
								"key": "Accept",
								"value": "application/json",
								"type": "text"
							}
						],
						"url": {
							"raw": "{{base_url}}/api/v1/categories/3",
							"host": [
								"{{base_url}}"
							],
							"path": [
								"api",
								"v1",
								"categories",
								"3"
							]
						}
					},
					"response": []
				}
			]
		},
		{
			"name": "Attribute Types",
			"item": [
				{
					"name": "Create",
					"request": {
						"auth": {
							"type": "bearer",
							"bearer": [
								{
									"key": "token",
									"value": "{{token}}",
									"type": "string"
								}
							]
						},
						"method": "POST",
						"header": [
							{
								"key": "Accept",
								"value": "application/json",
								"type": "text"
							}
						],
						"body": {
							"mode": "raw",
							"raw": "{\r\n    \"name\": \"Height\",\r\n    \"units\": [\r\n        \"Cm\",\r\n        \"M\"\r\n    ]\r\n}",
							"options": {
								"raw": {
									"language": "json"
								}
							}
						},
						"url": {
							"raw": "{{base_url}}/api/v1/attribute-types",
							"host": [
								"{{base_url}}"
							],
							"path": [
								"api",
								"v1",
								"attribute-types"
							]
						}
					},
					"response": []
				},
				{
					"name": "Delete",
					"request": {
						"auth": {
							"type": "bearer",
							"bearer": [
								{
									"key": "token",
									"value": "{{token}}",
									"type": "string"
								}
							]
						},
						"method": "DELETE",
						"header": [
							{
								"key": "Accept",
								"value": "application/json",
								"type": "text"
							}
						],
						"url": {
							"raw": "{{base_url}}/api/v1/attribute-types/2",
							"host": [
								"{{base_url}}"
							],
							"path": [
								"api",
								"v1",
								"attribute-types",
								"2"
							]
						}
					},
					"response": []
				},
				{
					"name": "Update",
					"request": {
						"auth": {
							"type": "bearer",
							"bearer": [
								{
									"key": "token",
									"value": "{{token}}",
									"type": "string"
								}
							]
						},
						"method": "PUT",
						"header": [
							{
								"key": "Accept",
								"value": "application/json",
								"type": "text"
							}
						],
						"body": {
							"mode": "raw",
							"raw": "{\r\n    \"name\": \"Height\",\r\n    \"units\": [\r\n        \"Cm\",\r\n        \"M\",\r\n        \"Feet\"\r\n    ]\r\n}",
							"options": {
								"raw": {
									"language": "json"
								}
							}
						},
						"url": {
							"raw": "{{base_url}}/api/v1/attribute-types/3",
							"host": [
								"{{base_url}}"
							],
							"path": [
								"api",
								"v1",
								"attribute-types",
								"3"
							]
						}
					},
					"response": []
				},
				{
					"name": "Get All",
					"protocolProfileBehavior": {
						"disableBodyPruning": true
					},
					"request": {
						"auth": {
							"type": "bearer",
							"bearer": [
								{
									"key": "token",
									"value": "{{token}}",
									"type": "string"
								}
							]
						},
						"method": "GET",
						"header": [
							{
								"key": "Accept",
								"value": "application/json",
								"type": "text"
							}
						],
						"body": {
							"mode": "raw",
							"raw": "",
							"options": {
								"raw": {
									"language": "json"
								}
							}
						},
						"url": {
							"raw": "{{base_url}}/api/v1/attribute-types",
							"host": [
								"{{base_url}}"
							],
							"path": [
								"api",
								"v1",
								"attribute-types"
							]
						}
					},
					"response": []
				},
				{
					"name": "Get Paginated",
					"request": {
						"auth": {
							"type": "bearer",
							"bearer": [
								{
									"key": "token",
									"value": "{{token}}",
									"type": "string"
								}
							]
						},
						"method": "POST",
						"header": [
							{
								"key": "Accept",
								"value": "application/json",
								"type": "text"
							}
						],
						"body": {
							"mode": "raw",
							"raw": "{\r\n    \"draw\": 0,\r\n    \"length\": 10,\r\n    \"search\": \"\",\r\n    \"column\": 1,\r\n    \"field\": \"\",\r\n    \"relationship\": false,\r\n    \"relationship_field\": \"\",\r\n    \"dir\": \"asc\"\r\n}",
							"options": {
								"raw": {
									"language": "json"
								}
							}
						},
						"url": {
							"raw": "{{base_url}}/api/v1/paginated-categories",
							"host": [
								"{{base_url}}"
							],
							"path": [
								"api",
								"v1",
								"paginated-categories"
							]
						}
					},
					"response": []
				}
			]
		},
		{
			"name": "Products",
			"item": [
				{
					"name": "Get Paginated",
					"request": {
						"auth": {
							"type": "bearer",
							"bearer": [
								{
									"key": "token",
									"value": "{{token}}",
									"type": "string"
								}
							]
						},
						"method": "POST",
						"header": [
							{
								"key": "Accept",
								"value": "application/json",
								"type": "text"
							}
						],
						"body": {
							"mode": "raw",
							"raw": "{\r\n    \"draw\": 0,\r\n    \"length\": 10,\r\n    \"search\": \"\",\r\n    \"column\": 0,\r\n    \"dir\": \"asc\"\r\n}",
							"options": {
								"raw": {
									"language": "json"
								}
							}
						},
						"url": {
							"raw": "{{base_url}}/api/v1/paginated-products?page=2",
							"host": [
								"{{base_url}}"
							],
							"path": [
								"api",
								"v1",
								"paginated-products"
							],
							"query": [
								{
									"key": "page",
									"value": "2"
								}
							]
						}
					},
					"response": []
				},
				{
					"name": "Create",
					"request": {
						"auth": {
							"type": "bearer",
							"bearer": [
								{
									"key": "token",
									"value": "{{token}}",
									"type": "string"
								}
							]
						},
						"method": "POST",
						"header": [
							{
								"key": "Accept",
								"value": "application/json",
								"type": "text"
							}
						],
						"body": {
							"mode": "formdata",
							"formdata": [
								{
									"key": "name",
									"value": "Product Name",
									"type": "text"
								},
								{
									"key": "description",
									"value": "<p>Description</p>",
									"type": "text"
								},
								{
									"key": "model",
									"value": "Model",
									"type": "text"
								},
								{
									"key": "sku",
									"value": "SKU",
									"type": "text"
								},
								{
									"key": "price",
									"value": "20.0",
									"type": "text"
								},
								{
									"key": "currency_id",
									"value": "1",
									"type": "text"
								},
								{
									"key": "quantity",
									"value": "2",
									"type": "text"
								},
								{
									"key": "minimum",
									"value": "1",
									"type": "text"
								},
								{
									"key": "subtract",
									"value": "1",
									"type": "text"
								},
								{
									"key": "stock_status_id",
									"value": "2",
									"type": "text"
								},
								{
									"key": "shipping",
									"value": "0",
									"type": "text"
								},
								{
									"key": "date_available",
									"value": "2021-07-14",
									"type": "text"
								},
								{
									"key": "status",
									"value": "1",
									"type": "text"
								},
								{
									"key": "sort_order",
									"value": "1",
									"type": "text"
								},
								{
									"key": "manufacturer_id",
									"value": "1",
									"type": "text"
								},
								{
									"key": "categories[]",
									"value": "1",
									"type": "text"
								},
								{
									"key": "categories[]",
									"value": "2",
									"type": "text"
								},
								{
									"key": "attributes[]",
									"value": "{\"id\":1,\"unit\":1,\"value\":\"4\"}",
									"type": "text"
								},
								{
									"key": "attributes[]",
									"value": "{\"id\":2,\"unit\":3,\"value\":\"2\"}",
									"type": "text"
								},
								{
									"key": "images[]",
									"type": "file",
									"src": "/C:/Users/kamanu/Downloads/Boston City Flow_1625916174.jpg"
								},
								{
									"key": "images[]",
									"type": "file",
									"src": "/C:/Users/kamanu/Downloads/flag.png"
								}
							]
						},
						"url": {
							"raw": "{{base_url}}/api/v1/products",
							"host": [
								"{{base_url}}"
							],
							"path": [
								"api",
								"v1",
								"products"
							]
						}
					},
					"response": []
				},
				{
					"name": "Edit",
					"request": {
						"auth": {
							"type": "bearer",
							"bearer": [
								{
									"key": "token",
									"value": "{{token}}",
									"type": "string"
								}
							]
						},
						"method": "POST",
						"header": [
							{
								"key": "Accept",
								"value": "application/json",
								"type": "text"
							}
						],
						"body": {
							"mode": "formdata",
							"formdata": [
								{
									"key": "name",
									"value": "Product Name - Edited",
									"type": "text"
								},
								{
									"key": "description",
									"value": "<p>Description</p>",
									"type": "text"
								},
								{
									"key": "model",
									"value": "Model",
									"type": "text"
								},
								{
									"key": "sku",
									"value": "SKU",
									"type": "text"
								},
								{
									"key": "price",
									"value": "20.0",
									"type": "text"
								},
								{
									"key": "currency_id",
									"value": "1",
									"type": "text"
								},
								{
									"key": "quantity",
									"value": "2",
									"type": "text"
								},
								{
									"key": "minimum",
									"value": "1",
									"type": "text"
								},
								{
									"key": "subtract",
									"value": "1",
									"type": "text"
								},
								{
									"key": "stock_status_id",
									"value": "2",
									"type": "text"
								},
								{
									"key": "shipping",
									"value": "0",
									"type": "text"
								},
								{
									"key": "date_available",
									"value": "2021-07-14",
									"type": "text"
								},
								{
									"key": "status",
									"value": "1",
									"type": "text"
								},
								{
									"key": "sort_order",
									"value": "1",
									"type": "text"
								},
								{
									"key": "manufacturer_id",
									"value": "1",
									"type": "text"
								},
								{
									"key": "categories[]",
									"value": "1",
									"type": "text"
								},
								{
									"key": "categories[]",
									"value": "2",
									"type": "text"
								},
								{
									"key": "attributes[]",
									"value": "{\"id\":1,\"unit\":1,\"value\":\"4\"}",
									"type": "text"
								},
								{
									"key": "attributes[]",
									"value": "{\"id\":2,\"unit\":3,\"value\":\"2\"}",
									"type": "text"
								},
								{
									"key": "id",
									"value": "9",
									"type": "text"
								},
								{
									"key": "_method",
									"value": "PUT",
									"type": "text"
								},
								{
									"key": "images[]",
									"type": "file",
									"src": "/C:/Users/kamanu/Downloads/nokia.jpg"
								},
								{
									"key": "images[]",
									"type": "file",
									"src": "/C:/Users/kamanu/Downloads/transaction.PNG"
								}
							]
						},
						"url": {
							"raw": "{{base_url}}/api/v1/products/9",
							"host": [
								"{{base_url}}"
							],
							"path": [
								"api",
								"v1",
								"products",
								"9"
							]
						}
					},
					"response": []
				},
				{
					"name": "Get",
					"protocolProfileBehavior": {
						"disableBodyPruning": true
					},
					"request": {
						"auth": {
							"type": "bearer",
							"bearer": [
								{
									"key": "token",
									"value": "{{token}}",
									"type": "string"
								}
							]
						},
						"method": "GET",
						"header": [
							{
								"key": "Accept",
								"value": "application/json",
								"type": "text"
							}
						],
						"body": {
							"mode": "raw",
							"raw": "",
							"options": {
								"raw": {
									"language": "json"
								}
							}
						},
						"url": {
							"raw": "{{base_url}}/api/v1/products/9",
							"host": [
								"{{base_url}}"
							],
							"path": [
								"api",
								"v1",
								"products",
								"9"
							]
						}
					},
					"response": []
				},
				{
					"name": "Delete",
					"request": {
						"auth": {
							"type": "bearer",
							"bearer": [
								{
									"key": "token",
									"value": "{{token}}",
									"type": "string"
								}
							]
						},
						"method": "DELETE",
						"header": [
							{
								"key": "Accept",
								"value": "application/json",
								"type": "text"
							}
						],
						"url": {
							"raw": "{{base_url}}/api/v1/clients/22",
							"host": [
								"{{base_url}}"
							],
							"path": [
								"api",
								"v1",
								"clients",
								"22"
							]
						}
					},
					"response": []
				}
			]
		},
		{
			"name": "Currencies",
			"item": [
				{
					"name": "Get All",
					"protocolProfileBehavior": {
						"disableBodyPruning": true
					},
					"request": {
						"auth": {
							"type": "bearer",
							"bearer": [
								{
									"key": "token",
									"value": "{{token}}",
									"type": "string"
								}
							]
						},
						"method": "GET",
						"header": [
							{
								"key": "Accept",
								"value": "application/json",
								"type": "text"
							}
						],
						"body": {
							"mode": "raw",
							"raw": "",
							"options": {
								"raw": {
									"language": "json"
								}
							}
						},
						"url": {
							"raw": "{{base_url}}/api/v1/currencies",
							"host": [
								"{{base_url}}"
							],
							"path": [
								"api",
								"v1",
								"currencies"
							]
						}
					},
					"response": []
				}
			]
		},
		{
			"name": "Clients",
			"item": [
				{
					"name": "Get Paginated",
					"request": {
						"auth": {
							"type": "bearer",
							"bearer": [
								{
									"key": "token",
									"value": "{{token}}",
									"type": "string"
								}
							]
						},
						"method": "POST",
						"header": [
							{
								"key": "Accept",
								"value": "application/json",
								"type": "text"
							}
						],
						"body": {
							"mode": "raw",
							"raw": "{\r\n    \"draw\": 0,\r\n    \"search\": \"7222222414\"\r\n}",
							"options": {
								"raw": {
									"language": "json"
								}
							}
						},
						"url": {
							"raw": "{{base_url}}/api/v1/clients/search-add-money",
							"host": [
								"{{base_url}}"
							],
							"path": [
								"api",
								"v1",
								"clients",
								"search-add-money"
							]
						}
					},
					"response": []
				},
				{
					"name": "Create",
					"request": {
						"auth": {
							"type": "bearer",
							"bearer": [
								{
									"key": "token",
									"value": "{{token}}",
									"type": "string"
								}
							]
						},
						"method": "POST",
						"header": [
							{
								"key": "Accept",
								"value": "application/json",
								"type": "text"
							}
						],
						"body": {
							"mode": "formdata",
							"formdata": [
								{
									"key": "first_name",
									"value": "TestFirst",
									"type": "text"
								},
								{
									"key": "last_name",
									"value": "TestLast",
									"type": "text"
								},
								{
									"key": "mobile",
									"value": "5534543325",
									"type": "text"
								},
								{
									"key": "email",
									"value": "mail@what.net2",
									"type": "text"
								},
								{
									"key": "uploaded_photo",
									"type": "file",
									"src": "/C:/Users/kamanu/Downloads/6_1627905917.jpeg"
								},
								{
									"key": "documents[One]",
									"type": "file",
									"src": "/C:/Users/kamanu/Downloads/6_1627905917.jpeg"
								},
								{
									"key": "documents[Two]",
									"type": "file",
									"src": "/C:/Users/kamanu/Downloads/iPhone_logo.png"
								},
								{
									"key": "addresses[]",
									"value": "{\"id\":\"\",\"street_number\":\"\",\"sublocality_level_1\":\"\",\"locality\":\"New York\",\"administrative_area_level_1\":\"NY\",\"country\":\"United States\",\"postal_code\":\"\",\"is_billing\":false,\"is_default\":true}",
									"type": "text"
								},
								{
									"key": "addresses[]",
									"value": "{\"id\":\"\",\"street_number\":\"\",\"sublocality_level_1\":\"\",\"locality\":\"\",\"administrative_area_level_1\":\"England\",\"country\":\"United Kingdom\",\"postal_code\":\"\",\"is_billing\":false,\"is_default\":false}",
									"type": "text"
								},
								{
									"key": "addresses[]",
									"value": "{\"id\":\"\",\"street_number\":\"\",\"sublocality_level_1\":\"\",\"locality\":\"Mineral Wells\",\"administrative_area_level_1\":\"TX\",\"country\":\"United States\",\"postal_code\":\"\",\"is_billing\":true,\"is_default\":true}",
									"type": "text"
								},
								{
									"key": "addresses[]",
									"value": "{\"id\":\"\",\"street_number\":\"\",\"sublocality_level_1\":\"\",\"locality\":\"San Jose\",\"administrative_area_level_1\":\"CA\",\"country\":\"United States\",\"postal_code\":\"\",\"is_billing\":true,\"is_default\":false}",
									"type": "text"
								}
							]
						},
						"url": {
							"raw": "{{base_url}}/api/v1/clients",
							"host": [
								"{{base_url}}"
							],
							"path": [
								"api",
								"v1",
								"clients"
							]
						}
					},
					"response": []
				},
				{
					"name": "Check Email",
					"request": {
						"auth": {
							"type": "bearer",
							"bearer": [
								{
									"key": "token",
									"value": "{{token}}",
									"type": "string"
								}
							]
						},
						"method": "POST",
						"header": [
							{
								"key": "Accept",
								"value": "application/json",
								"type": "text"
							}
						],
						"body": {
							"mode": "raw",
							"raw": "{\r\n    \"email\": \"mail@mail.com\"\r\n}",
							"options": {
								"raw": {
									"language": "json"
								}
							}
						},
						"url": {
							"raw": "{{base_url}}/api/v1/clients/check-email",
							"host": [
								"{{base_url}}"
							],
							"path": [
								"api",
								"v1",
								"clients",
								"check-email"
							]
						}
					},
					"response": []
				},
				{
					"name": "Edit",
					"request": {
						"auth": {
							"type": "bearer",
							"bearer": [
								{
									"key": "token",
									"value": "{{token}}",
									"type": "string"
								}
							]
						},
						"method": "POST",
						"header": [
							{
								"key": "Accept",
								"value": "application/json",
								"type": "text"
							}
						],
						"body": {
							"mode": "formdata",
							"formdata": [
								{
									"key": "first_name",
									"value": "Felix ED",
									"type": "text"
								},
								{
									"key": "last_name",
									"value": "Mwaniki",
									"type": "text"
								},
								{
									"key": "mobile",
									"value": "072-445-9441",
									"type": "text"
								},
								{
									"key": "email",
									"value": "kinyuafelix4@gmail.coz",
									"type": "text"
								},
								{
									"key": "street_address",
									"value": "620",
									"type": "text"
								},
								{
									"key": "zip_code",
									"value": "1008",
									"type": "text"
								},
								{
									"key": "locality",
									"value": "Manhattan",
									"type": "text"
								},
								{
									"key": "city",
									"value": "Nairobi",
									"type": "text"
								},
								{
									"key": "state",
									"value": "NY",
									"type": "text"
								},
								{
									"key": "images[]",
									"type": "file",
									"src": "/C:/Users/kamanu/Downloads/flag.png"
								},
								{
									"key": "country",
									"value": "United States",
									"type": "text"
								},
								{
									"key": "uploaded_photo",
									"type": "file",
									"src": "/C:/Users/kamanu/Downloads/Boston City Flow_1625916174.jpg"
								},
								{
									"key": "documents[One]",
									"type": "file",
									"src": "/C:/Users/kamanu/Downloads/Boston City Flow_1625916174.jpg"
								},
								{
									"key": "documents[Two]",
									"type": "file",
									"src": "/C:/Users/kamanu/Downloads/csv-function_1625750574 (1).docx"
								},
								{
									"key": "id",
									"value": "25",
									"type": "text"
								},
								{
									"key": "_method",
									"value": "PUT",
									"type": "text"
								},
								{
									"key": "current_documents[]",
									"value": "1",
									"type": "text"
								}
							]
						},
						"url": {
							"raw": "{{base_url}}/api/v1/clients/25",
							"host": [
								"{{base_url}}"
							],
							"path": [
								"api",
								"v1",
								"clients",
								"25"
							]
						}
					},
					"response": []
				},
				{
					"name": "Get",
					"protocolProfileBehavior": {
						"disableBodyPruning": true
					},
					"request": {
						"auth": {
							"type": "bearer",
							"bearer": [
								{
									"key": "token",
									"value": "{{token}}",
									"type": "string"
								}
							]
						},
						"method": "GET",
						"header": [
							{
								"key": "Accept",
								"value": "application/json",
								"type": "text"
							}
						],
						"body": {
							"mode": "raw",
							"raw": "",
							"options": {
								"raw": {
									"language": "json"
								}
							}
						},
						"url": {
							"raw": "{{base_url}}/api/v1/clients/25",
							"host": [
								"{{base_url}}"
							],
							"path": [
								"api",
								"v1",
								"clients",
								"25"
							]
						}
					},
					"response": []
				},
				{
					"name": "Update Status",
					"request": {
						"auth": {
							"type": "bearer",
							"bearer": [
								{
									"key": "token",
									"value": "{{token}}",
									"type": "string"
								}
							]
						},
						"method": "PUT",
						"header": [
							{
								"key": "Accept",
								"value": "application/json",
								"type": "text"
							}
						],
						"body": {
							"mode": "raw",
							"raw": "{\r\n    \"id\": 3,\r\n    \"status\": 0\r\n}",
							"options": {
								"raw": {
									"language": "json"
								}
							}
						},
						"url": {
							"raw": "{{base_url}}/api/v1/categories/status/3",
							"host": [
								"{{base_url}}"
							],
							"path": [
								"api",
								"v1",
								"categories",
								"status",
								"3"
							]
						}
					},
					"response": []
				},
				{
					"name": "Delete",
					"request": {
						"auth": {
							"type": "bearer",
							"bearer": [
								{
									"key": "token",
									"value": "{{token}}",
									"type": "string"
								}
							]
						},
						"method": "DELETE",
						"header": [
							{
								"key": "Accept",
								"value": "application/json",
								"type": "text"
							}
						],
						"url": {
							"raw": "{{base_url}}/api/v1/products/3",
							"host": [
								"{{base_url}}"
							],
							"path": [
								"api",
								"v1",
								"products",
								"3"
							]
						}
					},
					"response": []
				},
				{
					"name": "Add Money - Search Mobile",
					"request": {
						"auth": {
							"type": "bearer",
							"bearer": [
								{
									"key": "token",
									"value": "{{token}}",
									"type": "string"
								}
							]
						},
						"method": "POST",
						"header": [
							{
								"key": "Accept",
								"value": "application/json",
								"type": "text"
							}
						],
						"body": {
							"mode": "raw",
							"raw": "{\r\n    \"draw\": 0,\r\n    \"length\": 10,\r\n    \"search\": \"\",\r\n    \"column\": 0,\r\n    \"field\": \"\",\r\n    \"relationship\": false,\r\n    \"relationship_field\": \"\",\r\n    \"dir\": \"asc\"\r\n}",
							"options": {
								"raw": {
									"language": "json"
								}
							}
						},
						"url": {
							"raw": "{{base_url}}/api/v1/paginated-clients",
							"host": [
								"{{base_url}}"
							],
							"path": [
								"api",
								"v1",
								"paginated-clients"
							]
						}
					},
					"response": []
				},
				{
					"name": "Add Money",
					"request": {
						"auth": {
							"type": "bearer",
							"bearer": [
								{
									"key": "token",
									"value": "{{token}}",
									"type": "string"
								}
							]
						},
						"method": "POST",
						"header": [
							{
								"key": "Accept",
								"value": "application/json",
								"type": "text"
							}
						],
						"body": {
							"mode": "raw",
							"raw": "{\r\n    \"client_id\": 23,\r\n    \"amount\": 41\r\n}",
							"options": {
								"raw": {
									"language": "json"
								}
							}
						},
						"url": {
							"raw": "{{base_url}}/api/v1/client-balances",
							"host": [
								"{{base_url}}"
							],
							"path": [
								"api",
								"v1",
								"client-balances"
							]
						}
					},
					"response": []
				}
			]
		},
		{
			"name": "Users",
			"item": [
				{
					"name": "Get Paginated",
					"request": {
						"auth": {
							"type": "bearer",
							"bearer": [
								{
									"key": "token",
									"value": "{{token}}",
									"type": "string"
								}
							]
						},
						"method": "POST",
						"header": [
							{
								"key": "Accept",
								"value": "application/json",
								"type": "text"
							}
						],
						"body": {
							"mode": "raw",
							"raw": "{\r\n    \"draw\": 0,\r\n    \"length\": 10,\r\n    \"search\": \"\",\r\n    \"field\": \"\",\r\n    \"relationship\": false,\r\n    \"relationship_field\": \"\",\r\n    \"column\": 1,\r\n    \"dir\": \"asc\"\r\n}",
							"options": {
								"raw": {
									"language": "json"
								}
							}
						},
						"url": {
							"raw": "{{base_url}}/api/v1/paginated-users?page=1",
							"host": [
								"{{base_url}}"
							],
							"path": [
								"api",
								"v1",
								"paginated-users"
							],
							"query": [
								{
									"key": "page",
									"value": "1"
								}
							]
						}
					},
					"response": []
				},
				{
					"name": "Update Status",
					"request": {
						"auth": {
							"type": "bearer",
							"bearer": [
								{
									"key": "token",
									"value": "{{token}}",
									"type": "string"
								}
							]
						},
						"method": "POST",
						"header": [
							{
								"key": "Accept",
								"value": "application/json",
								"type": "text"
							}
						],
						"body": {
							"mode": "formdata",
							"formdata": [
								{
									"key": "id",
									"value": "3",
									"type": "text"
								},
								{
									"key": "_method",
									"value": "PUT",
									"type": "text"
								},
								{
									"key": "active",
									"value": "1",
									"type": "text"
								}
							]
						},
						"url": {
							"raw": "{{base_url}}/api/v1/users/3",
							"host": [
								"{{base_url}}"
							],
							"path": [
								"api",
								"v1",
								"users",
								"3"
							]
						}
					},
					"response": []
				},
				{
					"name": "Get",
					"protocolProfileBehavior": {
						"disableBodyPruning": true
					},
					"request": {
						"auth": {
							"type": "bearer",
							"bearer": [
								{
									"key": "token",
									"value": "{{token}}",
									"type": "string"
								}
							]
						},
						"method": "GET",
						"header": [
							{
								"key": "Accept",
								"value": "application/json",
								"type": "text"
							}
						],
						"body": {
							"mode": "raw",
							"raw": "",
							"options": {
								"raw": {
									"language": "json"
								}
							}
						},
						"url": {
							"raw": "{{base_url}}/api/v1/users/3",
							"host": [
								"{{base_url}}"
							],
							"path": [
								"api",
								"v1",
								"users",
								"3"
							]
						}
					},
					"response": []
				},
				{
					"name": "Delete",
					"request": {
						"auth": {
							"type": "bearer",
							"bearer": [
								{
									"key": "token",
									"value": "{{token}}",
									"type": "string"
								}
							]
						},
						"method": "DELETE",
						"header": [
							{
								"key": "Accept",
								"value": "application/json",
								"type": "text"
							}
						],
						"url": {
							"raw": "{{base_url}}/api/v1/users/9",
							"host": [
								"{{base_url}}"
							],
							"path": [
								"api",
								"v1",
								"users",
								"9"
							]
						}
					},
					"response": []
				},
				{
					"name": "Create",
					"request": {
						"auth": {
							"type": "bearer",
							"bearer": [
								{
									"key": "token",
									"value": "{{token}}",
									"type": "string"
								}
							]
						},
						"method": "POST",
						"header": [
							{
								"key": "Accept",
								"value": "multipart/form-data",
								"type": "text"
							}
						],
						"body": {
							"mode": "formdata",
							"formdata": [
								{
									"key": "title",
									"value": "Mrs",
									"type": "text"
								},
								{
									"key": "first_name",
									"value": "Felix",
									"type": "text"
								},
								{
									"key": "last_name",
									"value": "Mwaniki",
									"type": "text"
								},
								{
									"key": "email",
									"value": "kinyua@sifa.co.ke",
									"type": "text"
								},
								{
									"key": "username",
									"value": "Nyuaki",
									"type": "text"
								},
								{
									"key": "phone",
									"value": "431-432-1424",
									"type": "text"
								},
								{
									"key": "user_role",
									"value": "1",
									"type": "text"
								},
								{
									"key": "uploaded_photo",
									"type": "file",
									"src": "/C:/Users/kamanu/Downloads/Boston City Flow_1625916174.jpg"
								}
							]
						},
						"url": {
							"raw": "{{base_url}}/api/v1/users",
							"host": [
								"{{base_url}}"
							],
							"path": [
								"api",
								"v1",
								"users"
							]
						}
					},
					"response": []
				},
				{
					"name": "Edit",
					"request": {
						"auth": {
							"type": "bearer",
							"bearer": [
								{
									"key": "token",
									"value": "{{token}}",
									"type": "string"
								}
							]
						},
						"method": "POST",
						"header": [
							{
								"key": "Accept",
								"value": "application/json",
								"type": "text"
							}
						],
						"body": {
							"mode": "formdata",
							"formdata": [
								{
									"key": "_method",
									"value": "PUT",
									"type": "text"
								},
								{
									"key": "title",
									"value": "Mrs",
									"type": "text"
								},
								{
									"key": "first_name",
									"value": "Felix - Ed",
									"type": "text"
								},
								{
									"key": "last_name",
									"value": "Mwaniki",
									"type": "text"
								},
								{
									"key": "email",
									"value": "kinyua@sifa.co.keD",
									"type": "text"
								},
								{
									"key": "username",
									"value": "NyuakiI",
									"type": "text"
								},
								{
									"key": "phone",
									"value": "431-432-1424",
									"type": "text"
								},
								{
									"key": "user_role",
									"value": "1",
									"type": "text"
								},
								{
									"key": "uploaded_photo",
									"type": "file",
									"src": "/C:/Users/kamanu/Downloads/nokia.png"
								},
								{
									"key": "id",
									"value": "3",
									"type": "text"
								},
								{
									"key": "force_pw_change",
									"value": "0",
									"type": "text"
								}
							]
						},
						"url": {
							"raw": "{{base_url}}/api/v1/users/3",
							"host": [
								"{{base_url}}"
							],
							"path": [
								"api",
								"v1",
								"users",
								"3"
							]
						}
					},
					"response": []
				}
			]
		},
		{
			"name": "Roles",
			"item": [
				{
					"name": "Update Roles",
					"request": {
						"auth": {
							"type": "bearer",
							"bearer": [
								{
									"key": "token",
									"value": "{{token}}",
									"type": "string"
								}
							]
						},
						"method": "PUT",
						"header": [
							{
								"key": "Accept",
								"value": "application/json",
								"type": "text"
							}
						],
						"body": {
							"mode": "raw",
							"raw": "{\r\n    \"name\": \"Staff - Edited 2\"\r\n}",
							"options": {
								"raw": {
									"language": "json"
								}
							}
						},
						"url": {
							"raw": "{{base_url}}/api/v1/roles/2",
							"host": [
								"{{base_url}}"
							],
							"path": [
								"api",
								"v1",
								"roles",
								"2"
							]
						}
					},
					"response": []
				},
				{
					"name": "Create",
					"request": {
						"auth": {
							"type": "bearer",
							"bearer": [
								{
									"key": "token",
									"value": "{{token}}",
									"type": "string"
								}
							]
						},
						"method": "POST",
						"header": [
							{
								"key": "Accept",
								"value": "application/json",
								"type": "text"
							}
						],
						"body": {
							"mode": "raw",
							"raw": "{\r\n    \"name\": \"Mine Stuff 2\"\r\n}",
							"options": {
								"raw": {
									"language": "json"
								}
							}
						},
						"url": {
							"raw": "{{base_url}}/api/v1/roles",
							"host": [
								"{{base_url}}"
							],
							"path": [
								"api",
								"v1",
								"roles"
							]
						}
					},
					"response": []
				},
				{
					"name": "Delete Role",
					"request": {
						"auth": {
							"type": "bearer",
							"bearer": [
								{
									"key": "token",
									"value": "{{token}}",
									"type": "string"
								}
							]
						},
						"method": "DELETE",
						"header": [
							{
								"key": "Accept",
								"value": "application/json",
								"type": "text"
							}
						],
						"url": {
							"raw": "{{base_url}}/api/v1/roles/3",
							"host": [
								"{{base_url}}"
							],
							"path": [
								"api",
								"v1",
								"roles",
								"3"
							]
						}
					},
					"response": []
				},
				{
					"name": "Get",
					"request": {
						"auth": {
							"type": "bearer",
							"bearer": [
								{
									"key": "token",
									"value": "{{token}}",
									"type": "string"
								}
							]
						},
						"method": "GET",
						"header": [
							{
								"key": "Accept",
								"value": "application/json",
								"type": "text"
							}
						],
						"url": {
							"raw": "{{base_url}}/api/v1/roles/1",
							"host": [
								"{{base_url}}"
							],
							"path": [
								"api",
								"v1",
								"roles",
								"1"
							]
						}
					},
					"response": []
				},
				{
					"name": "Get Paginated",
					"request": {
						"auth": {
							"type": "bearer",
							"bearer": [
								{
									"key": "token",
									"value": "{{token}}",
									"type": "string"
								}
							]
						},
						"method": "POST",
						"header": [
							{
								"key": "Accept",
								"value": "application/json",
								"type": "text"
							}
						],
						"body": {
							"mode": "raw",
							"raw": "{\r\n    \"draw\": 0,\r\n    \"length\": 10,\r\n    \"search\": \"\",\r\n    \"column\": 0,\r\n    \"dir\": \"asc\"\r\n}",
							"options": {
								"raw": {
									"language": "json"
								}
							}
						},
						"url": {
							"raw": "{{base_url}}/api/v1/paginated-roles?page=1",
							"host": [
								"{{base_url}}"
							],
							"path": [
								"api",
								"v1",
								"paginated-roles"
							],
							"query": [
								{
									"key": "page",
									"value": "1"
								}
							]
						}
					},
					"response": []
				}
			]
		},
		{
			"name": "Countries",
			"item": [
				{
					"name": "Get Paginated",
					"request": {
						"auth": {
							"type": "bearer",
							"bearer": [
								{
									"key": "token",
									"value": "{{token}}",
									"type": "string"
								}
							]
						},
						"method": "POST",
						"header": [
							{
								"key": "Accept",
								"value": "application/json",
								"type": "text"
							}
						],
						"body": {
							"mode": "raw",
							"raw": "{\r\n    \"draw\": 0,\r\n    \"length\": 10,\r\n    \"search\": \"\",\r\n    \"column\": 0,\r\n    \"dir\": \"asc\"\r\n}",
							"options": {
								"raw": {
									"language": "json"
								}
							}
						},
						"url": {
							"raw": "{{base_url}}/api/v1/paginated-countries?page=1",
							"host": [
								"{{base_url}}"
							],
							"path": [
								"api",
								"v1",
								"paginated-countries"
							],
							"query": [
								{
									"key": "page",
									"value": "1"
								}
							]
						}
					},
					"response": []
				},
				{
					"name": "Create",
					"request": {
						"auth": {
							"type": "bearer",
							"bearer": [
								{
									"key": "token",
									"value": "{{token}}",
									"type": "string"
								}
							]
						},
						"method": "POST",
						"header": [
							{
								"key": "Accept",
								"value": "application/json",
								"type": "text"
							}
						],
						"body": {
							"mode": "raw",
							"raw": "{\r\n    \"iso\": \"11\",\r\n    \"name\": \"What edd\",\r\n    \"nicename\": \"abou edd\",\r\n    \"iso3\": \"111\",\r\n    \"numcode\": \"10002\",\r\n    \"phonecode\": \"555\",\r\n    \"status\": 1\r\n}",
							"options": {
								"raw": {
									"language": "json"
								}
							}
						},
						"url": {
							"raw": "{{base_url}}/api/v1/countries",
							"host": [
								"{{base_url}}"
							],
							"path": [
								"api",
								"v1",
								"countries"
							]
						}
					},
					"response": []
				},
				{
					"name": "Get",
					"request": {
						"auth": {
							"type": "bearer",
							"bearer": [
								{
									"key": "token",
									"value": "{{token}}",
									"type": "string"
								}
							]
						},
						"method": "GET",
						"header": [
							{
								"key": "Accept",
								"value": "application/json",
								"type": "text"
							}
						],
						"url": {
							"raw": "{{base_url}}/api/v1/countries/241",
							"host": [
								"{{base_url}}"
							],
							"path": [
								"api",
								"v1",
								"countries",
								"241"
							]
						}
					},
					"response": []
				},
				{
					"name": "Update",
					"request": {
						"auth": {
							"type": "bearer",
							"bearer": [
								{
									"key": "token",
									"value": "{{token}}",
									"type": "string"
								}
							]
						},
						"method": "PUT",
						"header": [
							{
								"key": "Accept",
								"value": "application/json",
								"type": "text"
							}
						],
						"body": {
							"mode": "raw",
							"raw": "{\r\n    \"iso\": \"222\",\r\n    \"name\": \"asfas editedd\",\r\n    \"nicename\": \"asfasd\",\r\n    \"iso3\": \"ccc\",\r\n    \"numcode\": 32762,\r\n    \"phonecode\": \"2551\",\r\n    \"status\": 1\r\n}",
							"options": {
								"raw": {
									"language": "json"
								}
							}
						},
						"url": {
							"raw": "{{base_url}}/api/v1/countries/243",
							"host": [
								"{{base_url}}"
							],
							"path": [
								"api",
								"v1",
								"countries",
								"243"
							]
						}
					},
					"response": []
				},
				{
					"name": "Update Status",
					"request": {
						"auth": {
							"type": "bearer",
							"bearer": [
								{
									"key": "token",
									"value": "{{token}}",
									"type": "string"
								}
							]
						},
						"method": "PUT",
						"header": [
							{
								"key": "Accept",
								"value": "application/json",
								"type": "text"
							}
						],
						"body": {
							"mode": "raw",
							"raw": "{\r\n    \"id\": 22,\r\n    \"status\": 0\r\n}",
							"options": {
								"raw": {
									"language": "json"
								}
							}
						},
						"url": {
							"raw": "{{base_url}}/api/v1/countries/243",
							"host": [
								"{{base_url}}"
							],
							"path": [
								"api",
								"v1",
								"countries",
								"243"
							]
						}
					},
					"response": []
				},
				{
					"name": "Delete",
					"request": {
						"auth": {
							"type": "bearer",
							"bearer": [
								{
									"key": "token",
									"value": "{{token}}",
									"type": "string"
								}
							]
						},
						"method": "DELETE",
						"header": [
							{
								"key": "Accept",
								"value": "application/json",
								"type": "text"
							}
						],
						"url": {
							"raw": "{{base_url}}/api/v1/countries/243",
							"host": [
								"{{base_url}}"
							],
							"path": [
								"api",
								"v1",
								"countries",
								"243"
							]
						}
					},
					"response": []
				}
			]
		},
		{
			"name": "States",
			"item": [
				{
					"name": "Post",
					"request": {
						"auth": {
							"type": "bearer",
							"bearer": [
								{
									"key": "token",
									"value": "{{token}}",
									"type": "string"
								}
							]
						},
						"method": "POST",
						"header": [
							{
								"key": "Accept",
								"value": "application/json",
								"type": "text"
							}
						],
						"body": {
							"mode": "raw",
							"raw": "{\r\n    \"country_id\": 100,\r\n    \"code\": \"SOb\",\r\n    \"name\": \"Mombasad\"    \r\n}",
							"options": {
								"raw": {
									"language": "json"
								}
							}
						},
						"url": {
							"raw": "{{base_url}}/api/v1/states",
							"host": [
								"{{base_url}}"
							],
							"path": [
								"api",
								"v1",
								"states"
							]
						}
					},
					"response": []
				},
				{
					"name": "Update",
					"request": {
						"auth": {
							"type": "bearer",
							"bearer": [
								{
									"key": "token",
									"value": "{{token}}",
									"type": "string"
								}
							]
						},
						"method": "PUT",
						"header": [
							{
								"key": "Accept",
								"value": "application/json",
								"type": "text"
							}
						],
						"body": {
							"mode": "raw",
							"raw": "{\r\n    \"country_id\": 100,\r\n    \"code\": \"SOb\",\r\n    \"name\": \"Mombasa - ed\"    \r\n}",
							"options": {
								"raw": {
									"language": "json"
								}
							}
						},
						"url": {
							"raw": "{{base_url}}/api/v1/states/30",
							"host": [
								"{{base_url}}"
							],
							"path": [
								"api",
								"v1",
								"states",
								"30"
							]
						}
					},
					"response": []
				},
				{
					"name": "Update Status",
					"request": {
						"auth": {
							"type": "bearer",
							"bearer": [
								{
									"key": "token",
									"value": "{{token}}",
									"type": "string"
								}
							]
						},
						"method": "PUT",
						"header": [
							{
								"key": "Accept",
								"value": "application/json",
								"type": "text"
							}
						],
						"body": {
							"mode": "raw",
							"raw": "{\r\n    \"status\": 0\r\n}",
							"options": {
								"raw": {
									"language": "json"
								}
							}
						},
						"url": {
							"raw": "{{base_url}}/api/v1/states/30",
							"host": [
								"{{base_url}}"
							],
							"path": [
								"api",
								"v1",
								"states",
								"30"
							]
						}
					},
					"response": []
				},
				{
					"name": "Get Paginated",
					"request": {
						"auth": {
							"type": "bearer",
							"bearer": [
								{
									"key": "token",
									"value": "{{token}}",
									"type": "string"
								}
							]
						},
						"method": "POST",
						"header": [
							{
								"key": "Accept",
								"value": "application/json",
								"type": "text"
							}
						],
						"body": {
							"mode": "raw",
							"raw": "{\r\n    \"draw\": 0,\r\n    \"length\": 10,\r\n    \"search\": \"\",\r\n    \"column\": 1,\r\n    \"dir\": \"asc\"\r\n}",
							"options": {
								"raw": {
									"language": "json"
								}
							}
						},
						"url": {
							"raw": "{{base_url}}/api/v1/paginated-states?page=1",
							"host": [
								"{{base_url}}"
							],
							"path": [
								"api",
								"v1",
								"paginated-states"
							],
							"query": [
								{
									"key": "page",
									"value": "1"
								}
							]
						}
					},
					"response": []
				},
				{
					"name": "Delete",
					"request": {
						"auth": {
							"type": "bearer",
							"bearer": [
								{
									"key": "token",
									"value": "{{token}}",
									"type": "string"
								}
							]
						},
						"method": "DELETE",
						"header": [
							{
								"key": "Accept",
								"value": "application/json",
								"type": "text"
							}
						],
						"url": {
							"raw": "{{base_url}}/api/v1/states/12",
							"host": [
								"{{base_url}}"
							],
							"path": [
								"api",
								"v1",
								"states",
								"12"
							]
						}
					},
					"response": []
				}
			]
		},
		{
			"name": "Currencies",
			"item": [
				{
					"name": "Create",
					"request": {
						"auth": {
							"type": "bearer",
							"bearer": [
								{
									"key": "token",
									"value": "{{token}}",
									"type": "string"
								}
							]
						},
						"method": "POST",
						"header": [
							{
								"key": "Accept",
								"value": "application/json",
								"type": "text"
							}
						],
						"body": {
							"mode": "raw",
							"raw": "{\r\n    \"symbol\": \"KSH\",\r\n    \"code\": \"KES\",\r\n    \"name\": \"Kenya Shillings\"\r\n}",
							"options": {
								"raw": {
									"language": "json"
								}
							}
						},
						"url": {
							"raw": "{{base_url}}/api/v1/currencies",
							"host": [
								"{{base_url}}"
							],
							"path": [
								"api",
								"v1",
								"currencies"
							]
						}
					},
					"response": []
				},
				{
					"name": "Update",
					"request": {
						"auth": {
							"type": "bearer",
							"bearer": [
								{
									"key": "token",
									"value": "{{token}}",
									"type": "string"
								}
							]
						},
						"method": "PUT",
						"header": [
							{
								"key": "Accept",
								"value": "application/json",
								"type": "text"
							}
						],
						"body": {
							"mode": "raw",
							"raw": "{\r\n    \"symbol\": \"؋\",\r\n    \"code\": \"AFN\",\r\n    \"name\": \"Afghani - ed2\"\r\n}",
							"options": {
								"raw": {
									"language": "json"
								}
							}
						},
						"url": {
							"raw": "{{base_url}}/api/v1/currencies/1",
							"host": [
								"{{base_url}}"
							],
							"path": [
								"api",
								"v1",
								"currencies",
								"1"
							]
						}
					},
					"response": []
				},
				{
					"name": "Update Status",
					"request": {
						"auth": {
							"type": "bearer",
							"bearer": [
								{
									"key": "token",
									"value": "{{token}}",
									"type": "string"
								}
							]
						},
						"method": "PUT",
						"header": [
							{
								"key": "Accept",
								"value": "application/json",
								"type": "text"
							}
						],
						"body": {
							"mode": "raw",
							"raw": "{\r\n    \"id\": 1,\r\n    \"status\": 1\r\n}",
							"options": {
								"raw": {
									"language": "json"
								}
							}
						},
						"url": {
							"raw": "{{base_url}}/api/v1/currencies/1",
							"host": [
								"{{base_url}}"
							],
							"path": [
								"api",
								"v1",
								"currencies",
								"1"
							]
						}
					},
					"response": []
				},
				{
					"name": "Get Paginated",
					"request": {
						"auth": {
							"type": "bearer",
							"bearer": [
								{
									"key": "token",
									"value": "{{token}}",
									"type": "string"
								}
							]
						},
						"method": "POST",
						"header": [
							{
								"key": "Accept",
								"value": "application/json",
								"type": "text"
							}
						],
						"body": {
							"mode": "raw",
							"raw": "{\r\n    \"draw\": 0,\r\n    \"length\": 10,\r\n    \"search\": \"\",\r\n    \"column\": 1,\r\n    \"dir\": \"asc\"\r\n}",
							"options": {
								"raw": {
									"language": "json"
								}
							}
						},
						"url": {
							"raw": "{{base_url}}/api/v1/paginated-currencies?page=1",
							"host": [
								"{{base_url}}"
							],
							"path": [
								"api",
								"v1",
								"paginated-currencies"
							],
							"query": [
								{
									"key": "page",
									"value": "1"
								}
							]
						}
					},
					"response": []
				},
				{
					"name": "Delete",
					"request": {
						"auth": {
							"type": "bearer",
							"bearer": [
								{
									"key": "token",
									"value": "{{token}}",
									"type": "string"
								}
							]
						},
						"method": "DELETE",
						"header": [
							{
								"key": "Accept",
								"value": "application/json",
								"type": "text"
							}
						],
						"url": {
							"raw": "{{base_url}}/api/v1/currencies/1",
							"host": [
								"{{base_url}}"
							],
							"path": [
								"api",
								"v1",
								"currencies",
								"1"
							]
						}
					},
					"response": []
				}
			]
		},
		{
			"name": "Brands",
			"item": [
				{
					"name": "Create",
					"request": {
						"auth": {
							"type": "bearer",
							"bearer": [
								{
									"key": "token",
									"value": "{{token}}",
									"type": "string"
								}
							]
						},
						"method": "POST",
						"header": [
							{
								"key": "Accept",
								"value": "application/json",
								"type": "text"
							}
						],
						"body": {
							"mode": "formdata",
							"formdata": [
								{
									"key": "name",
									"value": "Felix - Edited V2",
									"type": "text"
								},
								{
									"key": "uploaded_photo",
									"type": "file",
									"src": "/C:/Users/kamanu/Downloads/kenyan_fist.jpg"
								}
							]
						},
						"url": {
							"raw": "{{base_url}}/api/v1/brands",
							"host": [
								"{{base_url}}"
							],
							"path": [
								"api",
								"v1",
								"brands"
							]
						}
					},
					"response": []
				},
				{
					"name": "Update",
					"request": {
						"auth": {
							"type": "bearer",
							"bearer": [
								{
									"key": "token",
									"value": "{{token}}",
									"type": "string"
								}
							]
						},
						"method": "POST",
						"header": [
							{
								"key": "Accept",
								"value": "application/json",
								"type": "text"
							}
						],
						"body": {
							"mode": "formdata",
							"formdata": [
								{
									"key": "name",
									"value": "Felix",
									"type": "text"
								},
								{
									"key": "uploaded_photo",
									"type": "file",
									"src": "/C:/Users/kamanu/Downloads/Boston City Flow_1625916174.jpg"
								},
								{
									"key": "id",
									"value": "3",
									"type": "text"
								},
								{
									"key": "_method",
									"value": "PUT",
									"type": "text"
								}
							]
						},
						"url": {
							"raw": "{{base_url}}/api/v1/brands/3",
							"host": [
								"{{base_url}}"
							],
							"path": [
								"api",
								"v1",
								"brands",
								"3"
							]
						}
					},
					"response": []
				},
				{
					"name": "Edit",
					"request": {
						"auth": {
							"type": "bearer",
							"bearer": [
								{
									"key": "token",
									"value": "{{token}}",
									"type": "string"
								}
							]
						},
						"method": "POST",
						"header": [
							{
								"key": "Accept",
								"value": "multipart/form-data",
								"type": "text"
							}
						],
						"body": {
							"mode": "formdata",
							"formdata": [
								{
									"key": "name",
									"value": "Felix",
									"type": "text"
								},
								{
									"key": "uploaded_photo",
									"type": "file",
									"src": "/C:/Users/kamanu/Pictures/create_app_message.PNG"
								}
							]
						},
						"url": {
							"raw": "{{base_url}}/api/v1/brands",
							"host": [
								"{{base_url}}"
							],
							"path": [
								"api",
								"v1",
								"brands"
							]
						}
					},
					"response": []
				},
				{
					"name": "Get Paginated",
					"request": {
						"auth": {
							"type": "bearer",
							"bearer": [
								{
									"key": "token",
									"value": "{{token}}",
									"type": "string"
								}
							]
						},
						"method": "POST",
						"header": [
							{
								"key": "Accept",
								"value": "application/json",
								"type": "text"
							}
						],
						"body": {
							"mode": "raw",
							"raw": "{\r\n    \"draw\": 0,\r\n    \"length\": 10,\r\n    \"search\": \"\",\r\n    \"column\": 0,\r\n    \"dir\": \"desc\"\r\n}",
							"options": {
								"raw": {
									"language": "json"
								}
							}
						},
						"url": {
							"raw": "{{base_url}}/api/v1/paginated-brands?page=1",
							"host": [
								"{{base_url}}"
							],
							"path": [
								"api",
								"v1",
								"paginated-brands"
							],
							"query": [
								{
									"key": "page",
									"value": "1"
								}
							]
						}
					},
					"response": []
				},
				{
					"name": "Delete User",
					"request": {
						"auth": {
							"type": "bearer",
							"bearer": [
								{
									"key": "token",
									"value": "{{token}}",
									"type": "string"
								}
							]
						},
						"method": "DELETE",
						"header": [
							{
								"key": "Accept",
								"value": "application/json",
								"type": "text"
							}
						],
						"url": {
							"raw": "{{base_url}}/api/v1/brands/1",
							"host": [
								"{{base_url}}"
							],
							"path": [
								"api",
								"v1",
								"brands",
								"1"
							]
						}
					},
					"response": []
				},
				{
					"name": "Get All",
					"protocolProfileBehavior": {
						"disableBodyPruning": true
					},
					"request": {
						"auth": {
							"type": "bearer",
							"bearer": [
								{
									"key": "token",
									"value": "{{token}}",
									"type": "string"
								}
							]
						},
						"method": "GET",
						"header": [
							{
								"key": "Accept",
								"value": "application/json",
								"type": "text"
							}
						],
						"body": {
							"mode": "raw",
							"raw": "",
							"options": {
								"raw": {
									"language": "json"
								}
							}
						},
						"url": {
							"raw": "{{base_url}}/api/v1/brands",
							"host": [
								"{{base_url}}"
							],
							"path": [
								"api",
								"v1",
								"brands"
							]
						}
					},
					"response": []
				}
			]
		},
		{
			"name": "Catalog",
			"item": [
				{
					"name": "Order Preview",
					"item": [
						{
							"name": "Search Clients",
							"request": {
								"auth": {
									"type": "bearer",
									"bearer": [
										{
											"key": "token",
											"value": "{{token}}",
											"type": "string"
										}
									]
								},
								"method": "POST",
								"header": [
									{
										"key": "Accept",
										"value": "application/json",
										"type": "text"
									}
								],
								"body": {
									"mode": "raw",
									"raw": "{\r\n    \"search\": \"7222222414\"\r\n}",
									"options": {
										"raw": {
											"language": "json"
										}
									}
								},
								"url": {
									"raw": "{{base_url}}/api/v1/search-clients",
									"host": [
										"{{base_url}}"
									],
									"path": [
										"api",
										"v1",
										"search-clients"
									]
								}
							},
							"response": []
						},
						{
							"name": "Save Order",
							"request": {
								"auth": {
									"type": "bearer",
									"bearer": [
										{
											"key": "token",
											"value": "{{token}}",
											"type": "string"
										}
									]
								},
								"method": "POST",
								"header": [
									{
										"key": "Accept",
										"value": "application/json",
										"type": "text"
									}
								],
								"body": {
									"mode": "raw",
									"raw": "{\r\n    \"total\": 75.36,\r\n    \"payment_method\": \"wallet\",\r\n    \"type_of_wallet\": \"smilepay\",\r\n    \"transaction_id\": \"Transaction001\",\r\n    \"amount_paid\": 41,\r\n    \"amount_remaining\": 34.36,\r\n    \"address_id\": 104,\r\n    \"client_id\": 23,\r\n    \"cart\": [\r\n        {\r\n            \"id\": 6,\r\n            \"amountInCart\": 1\r\n        },\r\n        {\r\n            \"id\": 14,\r\n            \"amountInCart\": 1\r\n        }\r\n    ]\r\n}",
									"options": {
										"raw": {
											"language": "json"
										}
									}
								},
								"url": {
									"raw": "{{base_url}}/api/v1/orders",
									"host": [
										"{{base_url}}"
									],
									"path": [
										"api",
										"v1",
										"orders"
									]
								}
							},
							"response": []
						},
						{
							"name": "Update Order",
							"request": {
								"auth": {
									"type": "bearer",
									"bearer": [
										{
											"key": "token",
											"value": "{{token}}",
											"type": "string"
										}
									]
								},
								"method": "PUT",
								"header": [
									{
										"key": "Accept",
										"value": "application/json",
										"type": "text"
									}
								],
								"body": {
									"mode": "raw",
									"raw": "{\r\n    \"id\": \"48\",\r\n    \"total\": 354.12,\r\n    \"payment_method\": \"wallet\",\r\n    \"type_of_wallet\": \"smilepay\",\r\n    \"transaction_id\": \"TransactionId\",\r\n    \"amount_paid\": 23,\r\n    \"amount_remaining\": \"331.12\",\r\n    \"address_id\": 106,\r\n    \"client_id\": 23,\r\n    \"cart\": [\r\n        {\r\n            \"id\": 85,\r\n            \"quantity\": 1,\r\n            \"product_id\": 6\r\n        },\r\n        {\r\n            \"id\": 86,\r\n            \"quantity\": 1,\r\n            \"product_id\": 14\r\n        },\r\n        {\r\n            \"id\": -1,\r\n            \"quantity\": \"2\",\r\n            \"product_id\": 3\r\n        },\r\n        {\r\n            \"id\": -1,\r\n            \"quantity\": 1,\r\n            \"product_id\": 12\r\n        }\r\n    ]\r\n}",
									"options": {
										"raw": {
											"language": "json"
										}
									}
								},
								"url": {
									"raw": "{{base_url}}/api/v1/orders/48",
									"host": [
										"{{base_url}}"
									],
									"path": [
										"api",
										"v1",
										"orders",
										"48"
									]
								}
							},
							"response": []
						}
					]
				},
				{
					"name": "Index Page",
					"item": [
						{
							"name": "Get Paginated Products",
							"request": {
								"auth": {
									"type": "bearer",
									"bearer": [
										{
											"key": "token",
											"value": "{{token}}",
											"type": "string"
										}
									]
								},
								"method": "POST",
								"header": [
									{
										"key": "Accept",
										"value": "application/json",
										"type": "text"
									}
								],
								"body": {
									"mode": "raw",
									"raw": "{\r\n    \"draw\": 0,\r\n    \"length\": 12,\r\n    \"search\": \"\",\r\n    \"column\": 1,\r\n    \"dir\": \"asc\",\r\n    \"categoryId\": \"15\"\r\n}",
									"options": {
										"raw": {
											"language": "json"
										}
									}
								},
								"url": {
									"raw": "{{base_url}}/api/v1/catalog-products",
									"host": [
										"{{base_url}}"
									],
									"path": [
										"api",
										"v1",
										"catalog-products"
									]
								}
							},
							"response": []
						}
					]
				},
				{
					"name": "Invoice",
					"item": [
						{
							"name": "Download Invoice",
							"request": {
								"auth": {
									"type": "bearer",
									"bearer": [
										{
											"key": "token",
											"value": "{{token}}",
											"type": "string"
										}
									]
								},
								"method": "POST",
								"header": [
									{
										"key": "Accept",
										"value": "application/json",
										"type": "text"
									}
								],
								"body": {
									"mode": "raw",
									"raw": "{\r\n    \"id\": 48\r\n}",
									"options": {
										"raw": {
											"language": "json"
										}
									}
								},
								"url": {
									"raw": "{{base_url}}/api/v1/orders/download",
									"host": [
										"{{base_url}}"
									],
									"path": [
										"api",
										"v1",
										"orders",
										"download"
									]
								}
							},
							"response": []
						},
						{
							"name": "Pay Invoice",
							"request": {
								"auth": {
									"type": "bearer",
									"bearer": [
										{
											"key": "token",
											"value": "{{token}}",
											"type": "string"
										}
									]
								},
								"method": "PUT",
								"header": [
									{
										"key": "Accept",
										"value": "application/json",
										"type": "text"
									}
								],
								"body": {
									"mode": "raw",
									"raw": "{\r\n    \"payment_method\": \"wallet\",\r\n    \"type_of_wallet\": \"smilepay\",\r\n    \"transaction_id\": \"trasf\",\r\n    \"amount_paid\": 1,\r\n    \"amount_remaining\": 33.36,\r\n    \"id\": 48\r\n}",
									"options": {
										"raw": {
											"language": "json"
										}
									}
								},
								"url": {
									"raw": "{{base_url}}/api/v1/orders/payment/48",
									"host": [
										"{{base_url}}"
									],
									"path": [
										"api",
										"v1",
										"orders",
										"payment",
										"48"
									]
								}
							},
							"response": []
						}
					]
				}
			]
		},
		{
			"name": "Orders",
			"item": [
				{
					"name": "Charts",
					"item": [
						{
							"name": "Daily Collection",
							"request": {
								"auth": {
									"type": "bearer",
									"bearer": [
										{
											"key": "token",
											"value": "{{token}}",
											"type": "string"
										}
									]
								},
								"method": "POST",
								"header": [
									{
										"key": "Accept",
										"value": "application/json",
										"type": "text"
									}
								],
								"body": {
									"mode": "raw",
									"raw": "{\r\n    \"from\": \"2021-06-30\",\r\n    \"to\": \"2021-07-30\"\r\n}",
									"options": {
										"raw": {
											"language": "json"
										}
									}
								},
								"url": {
									"raw": "{{base_url}}/api/v1/charts/collections/daily",
									"host": [
										"{{base_url}}"
									],
									"path": [
										"api",
										"v1",
										"charts",
										"collections",
										"daily"
									]
								}
							},
							"response": []
						},
						{
							"name": "Monthly Collection",
							"request": {
								"auth": {
									"type": "bearer",
									"bearer": [
										{
											"key": "token",
											"value": "{{token}}",
											"type": "string"
										}
									]
								},
								"method": "POST",
								"header": [
									{
										"key": "Accept",
										"value": "application/json",
										"type": "text"
									}
								],
								"url": {
									"raw": "{{base_url}}/api/v1/charts/collections/monthly",
									"host": [
										"{{base_url}}"
									],
									"path": [
										"api",
										"v1",
										"charts",
										"collections",
										"monthly"
									]
								}
							},
							"response": []
						}
					]
				},
				{
					"name": "Update Status",
					"request": {
						"auth": {
							"type": "bearer",
							"bearer": [
								{
									"key": "token",
									"value": "{{token}}",
									"type": "string"
								}
							]
						},
						"method": "PUT",
						"header": [],
						"body": {
							"mode": "raw",
							"raw": "{\r\n    \"order_id\": 1,\r\n    \"status\": \"Delivered\"\r\n}",
							"options": {
								"raw": {
									"language": "json"
								}
							}
						},
						"url": {
							"raw": "{{base_url}}/api/v1/orders/update-status/1",
							"host": [
								"{{base_url}}"
							],
							"path": [
								"api",
								"v1",
								"orders",
								"update-status",
								"1"
							]
						}
					},
					"response": []
				},
				{
					"name": "Export Csv",
					"request": {
						"auth": {
							"type": "bearer",
							"bearer": [
								{
									"key": "token",
									"value": "{{token}}",
									"type": "string"
								}
							]
						},
						"method": "POST",
						"header": [
							{
								"key": "Accept",
								"value": "application/json",
								"type": "text"
							}
						],
						"body": {
							"mode": "raw",
							"raw": "{\r\n    \"tableColumns\": [\r\n        \"created_at\",\r\n        \"id\",\r\n        \"client\",\r\n        \"amount_remaining\"\r\n    ],\r\n    \"draw\": 0,\r\n    \"length\": 10,\r\n    \"column\": 0,\r\n    \"dir\": \"desc\",\r\n    \"created_at\": \"2021-07-21\",\r\n    \"id\": \"\",\r\n    \"name\": \"\",\r\n    \"amount_remaining\": \"\",\r\n    \"to\": \"2021-07-30\",\r\n    \"from\": \"2021-07-19\"\r\n}",
							"options": {
								"raw": {
									"language": "json"
								}
							}
						},
						"url": {
							"raw": "{{base_url}}/api/v1/orders/export",
							"host": [
								"{{base_url}}"
							],
							"path": [
								"api",
								"v1",
								"orders",
								"export"
							]
						}
					},
					"response": []
				},
				{
					"name": "Sales Report",
					"request": {
						"auth": {
							"type": "bearer",
							"bearer": [
								{
									"key": "token",
									"value": "{{token}}",
									"type": "string"
								}
							]
						},
						"method": "POST",
						"header": [
							{
								"key": "Accept",
								"value": "application/json",
								"type": "text"
							}
						],
						"body": {
							"mode": "raw",
							"raw": "{\r\n    \"tableColumns\": [\r\n        \"created_at\",\r\n        \"id\",\r\n        \"client\",\r\n        \"total\",\r\n        \"amount_paid\",\r\n        \"amount_remaining\"\r\n    ],\r\n    \"draw\": 0,\r\n    \"length\": 10,\r\n    \"column\": 0,\r\n    \"dir\": \"desc\",\r\n    \"created_at\": \"\",\r\n    \"id\": \"\",\r\n    \"name\": \"\",\r\n    \"total\": \"\",\r\n    \"amount_remaining\": \"\",\r\n    \"amount_paid\": \"\",\r\n    \"to\": \"2021-07-13\",\r\n    \"from\": \"2021-07-10\"\r\n}",
							"options": {
								"raw": {
									"language": "json"
								}
							}
						},
						"url": {
							"raw": "{{base_url}}/api/v1/orders/sales-report",
							"host": [
								"{{base_url}}"
							],
							"path": [
								"api",
								"v1",
								"orders",
								"sales-report"
							]
						}
					},
					"response": []
				},
				{
					"name": "Collection Report",
					"request": {
						"auth": {
							"type": "bearer",
							"bearer": [
								{
									"key": "token",
									"value": "{{token}}",
									"type": "string"
								}
							]
						},
						"method": "POST",
						"header": [
							{
								"key": "Accept",
								"value": "application/json",
								"type": "text"
							}
						],
						"body": {
							"mode": "raw",
							"raw": "{\r\n    \"tableColumns\": [\r\n        \"created_at\",\r\n        \"id\",\r\n        \"client\",\r\n        \"amount_remaining\"\r\n    ],\r\n    \"draw\": 0,\r\n    \"length\": 2,\r\n    \"column\": 0,\r\n    \"dir\": \"desc\",\r\n    \"created_at\": \"\",\r\n    \"id\": \"\",\r\n    \"name\": \"\",\r\n    \"amount_remaining\": \"\",\r\n    \"to\": \"2021-07-29\",\r\n    \"from\": \"2021-07-14\",\r\n    \"onlyDebts\": 1\r\n}",
							"options": {
								"raw": {
									"language": "json"
								}
							}
						},
						"url": {
							"raw": "{{base_url}}/api/v1/orders/sales-report",
							"host": [
								"{{base_url}}"
							],
							"path": [
								"api",
								"v1",
								"orders",
								"sales-report"
							]
						}
					},
					"response": []
				},
				{
					"name": "Orders By Debt",
					"request": {
						"auth": {
							"type": "bearer",
							"bearer": [
								{
									"key": "token",
									"value": "{{token}}",
									"type": "string"
								}
							]
						},
						"method": "POST",
						"header": [
							{
								"key": "Accept",
								"value": "application/json",
								"type": "text"
							}
						],
						"body": {
							"mode": "raw",
							"raw": "{\r\n    \"tableColumns\": [\r\n        \"created_at\",\r\n        \"id\",\r\n        \"client\",\r\n        \"total\",\r\n        \"amount_remaining\",\r\n        \"actions\"\r\n    ],\r\n    \"draw\": 0,\r\n    \"length\": 2,\r\n    \"search\": \"\",\r\n    \"column\": 0,\r\n    \"field\": \"\",\r\n    \"relationship\": false,\r\n    \"relationship_field\": \"\",\r\n    \"dir\": \"desc\"\r\n}",
							"options": {
								"raw": {
									"language": "json"
								}
							}
						},
						"url": {
							"raw": "{{base_url}}/api/v1/orders/debts",
							"host": [
								"{{base_url}}"
							],
							"path": [
								"api",
								"v1",
								"orders",
								"debts"
							]
						}
					},
					"response": []
				},
				{
					"name": "Customers By Debt",
					"request": {
						"auth": {
							"type": "bearer",
							"bearer": [
								{
									"key": "token",
									"value": "{{token}}",
									"type": "string"
								}
							]
						},
						"method": "POST",
						"header": [
							{
								"key": "Accept",
								"value": "application/json",
								"type": "text"
							}
						],
						"body": {
							"mode": "raw",
							"raw": "{\r\n    \"draw\": 0,\r\n    \"length\": 10,\r\n    \"search\": \"Eum\",\r\n    \"column\": 0,\r\n    \"field\": \"first_name\",\r\n    \"relationship\": false,\r\n    \"relationship_field\": \"\",\r\n    \"dir\": \"asc\"\r\n}",
							"options": {
								"raw": {
									"language": "json"
								}
							}
						},
						"url": {
							"raw": "{{base_url}}/api/v1/clients/debts",
							"host": [
								"{{base_url}}"
							],
							"path": [
								"api",
								"v1",
								"clients",
								"debts"
							]
						}
					},
					"response": []
				}
			]
		},
		{
			"name": "Test Route",
			"protocolProfileBehavior": {
				"disabledSystemHeaders": {
					"user-agent": true,
					"connection": true,
					"accept": true,
					"accept-encoding": true
				}
			},
			"request": {
				"auth": {
					"type": "noauth"
				},
				"method": "GET",
				"header": [
					{
						"key": "Accept",
						"value": "multipart/form-data",
						"type": "text",
						"disabled": true
					}
				],
				"url": {
					"raw": "https://api.covidtracking.com/v1/us/daily.json",
					"protocol": "https",
					"host": [
						"api",
						"covidtracking",
						"com"
					],
					"path": [
						"v1",
						"us",
						"daily.json"
					]
				}
			},
			"response": []
		}
	],
	"event": [
		{
			"listen": "prerequest",
			"script": {
				"type": "text/javascript",
				"exec": [
					""
				]
			}
		},
		{
			"listen": "test",
			"script": {
				"type": "text/javascript",
				"exec": [
					""
				]
			}
		}
	],
	"variable": [
		{
			"key": "base_url",
			"value": "http://csv.test:8080"
		},
		{
			"key": "token",
			"value": "119|gxrFF3VufWgSJo70QEtGbuu0z0jMu1jDVtaPI0s6"
		}
	]
}